/home/usmana/miniconda3/envs/rl4co-env/lib/python3.10/site-packages/torchrl/__init__.py:26: UserWarning: failed to set start method to spawn, and current start method for mp is fork.
  warn(
wandb: Tracking run with wandb version 0.15.12
wandb: W&B syncing is set to `offline` in this directory.  
wandb: Run `wandb online` or set WANDB_MODE=online to enable cloud syncing.
/home/usmana/miniconda3/envs/rl4co-env/lib/python3.10/site-packages/lightning/pytorch/loggers/wandb.py:396: UserWarning: There is a wandb run already in progress and newly created instances of `WandbLogger` will reuse this run. If this is not desired, call `wandb.finish()` before instantiating `WandbLogger`.
  rank_zero_warn(
Traceback (most recent call last):
  File "/home/usmana/rl4co60/attn20knn_critic.py", line 24, in <module>
    env = TSPEnv(num_loc=20, batch_size=128, train_file = "rl4co/data/data/tsp/tsp20_train_gen_seed1111.npz", test_file =  "rl4co/data/data/tsp/tsp20_test_seed1234.npz", val_file = "rl4co/data/data/tsp/tsp20_val_seed4321.npz")
NameError: name 'TSPEnv' is not defined
wandb: Waiting for W&B process to finish... (failed 1).
wandb: You can sync this run to the cloud by running:
wandb: wandb sync /home/usmana/rl4co60/wandb/offline-run-20231203_082612-zrhpfcub
wandb: Find logs at: ./wandb/offline-run-20231203_082612-zrhpfcub/logs
/home/usmana/miniconda3/envs/rl4co-env/lib/python3.10/site-packages/torchrl/__init__.py:26: UserWarning: failed to set start method to spawn, and current start method for mp is fork.
  warn(
wandb: Tracking run with wandb version 0.15.12
wandb: W&B syncing is set to `offline` in this directory.  
wandb: Run `wandb online` or set WANDB_MODE=online to enable cloud syncing.
/home/usmana/miniconda3/envs/rl4co-env/lib/python3.10/site-packages/lightning/pytorch/loggers/wandb.py:396: UserWarning: There is a wandb run already in progress and newly created instances of `WandbLogger` will reuse this run. If this is not desired, call `wandb.finish()` before instantiating `WandbLogger`.
  rank_zero_warn(
Traceback (most recent call last):
  File "/home/usmana/rl4co60/attn20knn_gcn.py", line 42, in <module>
    env = TSPEnv(num_loc=20, batch_size = 128, train_file = "rl4co/data/data/tsp/tsp20_train_gen_seed1111.npz", test_file =  "rl4co/data/data/tsp/tsp20_test_seed1234.npz", val_file = "rl4co/data/data/tsp/tsp20_val_seed4321.npz")
NameError: name 'TSPEnv' is not defined
wandb: Waiting for W&B process to finish... (failed 1).
wandb: You can sync this run to the cloud by running:
wandb: wandb sync /home/usmana/rl4co60/wandb/offline-run-20231203_082626-n9ltt92t
wandb: Find logs at: ./wandb/offline-run-20231203_082626-n9ltt92t/logs
/home/usmana/miniconda3/envs/rl4co-env/lib/python3.10/site-packages/torchrl/__init__.py:26: UserWarning: failed to set start method to spawn, and current start method for mp is fork.
  warn(
wandb: Tracking run with wandb version 0.15.12
wandb: W&B syncing is set to `offline` in this directory.  
wandb: Run `wandb online` or set WANDB_MODE=online to enable cloud syncing.
/home/usmana/miniconda3/envs/rl4co-env/lib/python3.10/site-packages/lightning/pytorch/loggers/wandb.py:396: UserWarning: There is a wandb run already in progress and newly created instances of `WandbLogger` will reuse this run. If this is not desired, call `wandb.finish()` before instantiating `WandbLogger`.
  rank_zero_warn(
Traceback (most recent call last):
  File "/home/usmana/rl4co60/attn20knn_gru.py", line 42, in <module>
    env = TSPEnv(num_loc=20, batch_size = 128, train_file = "rl4co/data/data/tsp/tsp20_train_gen_seed1111.npz", test_file =  "rl4co/data/data/tsp/tsp20_test_seed1234.npz", val_file = "rl4co/data/data/tsp/tsp20_val_seed4321.npz")
NameError: name 'TSPEnv' is not defined
wandb: Waiting for W&B process to finish... (failed 1).
wandb: You can sync this run to the cloud by running:
wandb: wandb sync /home/usmana/rl4co60/wandb/offline-run-20231203_082639-34xfnwo3
wandb: Find logs at: ./wandb/offline-run-20231203_082639-34xfnwo3/logs
/home/usmana/miniconda3/envs/rl4co-env/lib/python3.10/site-packages/torchrl/__init__.py:26: UserWarning: failed to set start method to spawn, and current start method for mp is fork.
  warn(
wandb: Tracking run with wandb version 0.15.12
wandb: W&B syncing is set to `offline` in this directory.  
wandb: Run `wandb online` or set WANDB_MODE=online to enable cloud syncing.
/home/usmana/miniconda3/envs/rl4co-env/lib/python3.10/site-packages/lightning/pytorch/loggers/wandb.py:396: UserWarning: There is a wandb run already in progress and newly created instances of `WandbLogger` will reuse this run. If this is not desired, call `wandb.finish()` before instantiating `WandbLogger`.
  rank_zero_warn(
Traceback (most recent call last):
  File "/home/usmana/rl4co60/attn20knn_transformer.py", line 12, in <module>
    transformer_encoder = GraphTransfromerEncoder(
NameError: name 'GraphTransfromerEncoder' is not defined
wandb: Waiting for W&B process to finish... (failed 1).
wandb: You can sync this run to the cloud by running:
wandb: wandb sync /home/usmana/rl4co60/wandb/offline-run-20231203_082653-3hwxr2fc
wandb: Find logs at: ./wandb/offline-run-20231203_082653-3hwxr2fc/logs
/home/usmana/miniconda3/envs/rl4co-env/lib/python3.10/site-packages/torchrl/__init__.py:26: UserWarning: failed to set start method to spawn, and current start method for mp is fork.
  warn(
wandb: Tracking run with wandb version 0.15.12
wandb: W&B syncing is set to `offline` in this directory.  
wandb: Run `wandb online` or set WANDB_MODE=online to enable cloud syncing.
/home/usmana/miniconda3/envs/rl4co-env/lib/python3.10/site-packages/lightning/pytorch/loggers/wandb.py:396: UserWarning: There is a wandb run already in progress and newly created instances of `WandbLogger` will reuse this run. If this is not desired, call `wandb.finish()` before instantiating `WandbLogger`.
  rank_zero_warn(
Traceback (most recent call last):
  File "/home/usmana/rl4co60/pomo20knn_gat.py", line 40, in <module>
    env = TSPEnv(num_loc=20, batch_size=128, train_file = "rl4co/data/data/tsp/tsp20_train_gen_seed1111.npz", test_file =  "rl4co/data/data/tsp/tsp20_test_seed1234.npz", val_file = "rl4co/data/data/tsp/tsp20_val_seed4321.npz")
NameError: name 'TSPEnv' is not defined
wandb: Waiting for W&B process to finish... (failed 1).
wandb: You can sync this run to the cloud by running:
wandb: wandb sync /home/usmana/rl4co60/wandb/offline-run-20231203_082707-mhdnykip
wandb: Find logs at: ./wandb/offline-run-20231203_082707-mhdnykip/logs
  File "/home/usmana/rl4co60/ppo20knn_gat.py", line 1
    yfrom rl4co.envs.tsp import TSPEnv
          ^^^^^
SyntaxError: invalid syntax
wandb: Tracking run with wandb version 0.15.12
wandb: W&B syncing is set to `offline` in this directory.  
wandb: Run `wandb online` or set WANDB_MODE=online to enable cloud syncing.
/home/usmana/miniconda3/envs/rl4co-env/lib/python3.10/site-packages/lightning/pytorch/loggers/wandb.py:396: UserWarning: There is a wandb run already in progress and newly created instances of `WandbLogger` will reuse this run. If this is not desired, call `wandb.finish()` before instantiating `WandbLogger`.
  rank_zero_warn(
/home/usmana/miniconda3/envs/rl4co-env/lib/python3.10/site-packages/lightning/pytorch/utilities/parsing.py:196: UserWarning: Attribute 'env' is an instance of `nn.Module` and is already saved during checkpointing. It is recommended to ignore them using `self.save_hyperparameters(ignore=['env'])`.
  rank_zero_warn(
/home/usmana/miniconda3/envs/rl4co-env/lib/python3.10/site-packages/lightning/pytorch/utilities/parsing.py:196: UserWarning: Attribute 'policy' is an instance of `nn.Module` and is already saved during checkpointing. It is recommended to ignore them using `self.save_hyperparameters(ignore=['policy'])`.
  rank_zero_warn(
/home/usmana/miniconda3/envs/rl4co-env/lib/python3.10/site-packages/torch/functional.py:504: UserWarning: torch.meshgrid: in an upcoming release, it will be required to pass the indexing argument. (Triggered internally at ../aten/src/ATen/native/TensorShape.cpp:3483.)
  return _VF.meshgrid(tensors, **kwargs)  # type: ignore[attr-defined]
/home/usmana/miniconda3/envs/rl4co-env/lib/python3.10/site-packages/lightning/fabric/plugins/environments/slurm.py:165: PossibleUserWarning: The `srun` command is available on your system but is not used. HINT: If your intention is to run Lightning on SLURM, prepend your python command with `srun` like so: srun python symnco20knn_gat.py ...
  rank_zero_warn(
Using 16bit Automatic Mixed Precision (AMP)
Trainer already configured with model summary callbacks: [<class 'lightning.pytorch.callbacks.rich_model_summary.RichModelSummary'>]. Skipping setting a default `ModelSummary` callback.
GPU available: True (cuda), used: True
TPU available: False, using: 0 TPU cores
IPU available: False, using: 0 IPUs
HPU available: False, using: 0 HPUs
Loading training dataset from file. This may not be desired in RL since the dataset is fixed and the agent will not be able to explore new states
LOCAL_RANK: 0 - CUDA_VISIBLE_DEVICES: [0]
/home/usmana/miniconda3/envs/rl4co-env/lib/python3.10/site-packages/lightning/pytorch/trainer/connectors/data_connector.py:432: PossibleUserWarning: The dataloader, val_dataloader, does not have many workers which may be a bottleneck. Consider increasing the value of the `num_workers` argument` (try 80 which is the number of cpus on this machine) in the `DataLoader` init to improve performance.
  rank_zero_warn(
/home/usmana/miniconda3/envs/rl4co-env/lib/python3.10/site-packages/lightning/pytorch/trainer/connectors/data_connector.py:432: PossibleUserWarning: The dataloader, train_dataloader, does not have many workers which may be a bottleneck. Consider increasing the value of the `num_workers` argument` (try 80 which is the number of cpus on this machine) in the `DataLoader` init to improve performance.
  rank_zero_warn(
Loading training dataset from file. This may not be desired in RL since the dataset is fixed and the agent will not be able to explore new states
Loading training dataset from file. This may not be desired in RL since the dataset is fixed and the agent will not be able to explore new states
Loading training dataset from file. This may not be desired in RL since the dataset is fixed and the agent will not be able to explore new states
Loading training dataset from file. This may not be desired in RL since the dataset is fixed and the agent will not be able to explore new states
Loading training dataset from file. This may not be desired in RL since the dataset is fixed and the agent will not be able to explore new states
Loading training dataset from file. This may not be desired in RL since the dataset is fixed and the agent will not be able to explore new states
Loading training dataset from file. This may not be desired in RL since the dataset is fixed and the agent will not be able to explore new states
Loading training dataset from file. This may not be desired in RL since the dataset is fixed and the agent will not be able to explore new states
Loading training dataset from file. This may not be desired in RL since the dataset is fixed and the agent will not be able to explore new states
Loading training dataset from file. This may not be desired in RL since the dataset is fixed and the agent will not be able to explore new states
Loading training dataset from file. This may not be desired in RL since the dataset is fixed and the agent will not be able to explore new states
Loading training dataset from file. This may not be desired in RL since the dataset is fixed and the agent will not be able to explore new states
Loading training dataset from file. This may not be desired in RL since the dataset is fixed and the agent will not be able to explore new states
Loading training dataset from file. This may not be desired in RL since the dataset is fixed and the agent will not be able to explore new states
Loading training dataset from file. This may not be desired in RL since the dataset is fixed and the agent will not be able to explore new states
Loading training dataset from file. This may not be desired in RL since the dataset is fixed and the agent will not be able to explore new states
Loading training dataset from file. This may not be desired in RL since the dataset is fixed and the agent will not be able to explore new states
Loading training dataset from file. This may not be desired in RL since the dataset is fixed and the agent will not be able to explore new states
Loading training dataset from file. This may not be desired in RL since the dataset is fixed and the agent will not be able to explore new states
Loading training dataset from file. This may not be desired in RL since the dataset is fixed and the agent will not be able to explore new states
Loading training dataset from file. This may not be desired in RL since the dataset is fixed and the agent will not be able to explore new states
Loading training dataset from file. This may not be desired in RL since the dataset is fixed and the agent will not be able to explore new states
Loading training dataset from file. This may not be desired in RL since the dataset is fixed and the agent will not be able to explore new states
Loading training dataset from file. This may not be desired in RL since the dataset is fixed and the agent will not be able to explore new states
Loading training dataset from file. This may not be desired in RL since the dataset is fixed and the agent will not be able to explore new states
Loading training dataset from file. This may not be desired in RL since the dataset is fixed and the agent will not be able to explore new states
Loading training dataset from file. This may not be desired in RL since the dataset is fixed and the agent will not be able to explore new states
Loading training dataset from file. This may not be desired in RL since the dataset is fixed and the agent will not be able to explore new states
Loading training dataset from file. This may not be desired in RL since the dataset is fixed and the agent will not be able to explore new states
Loading training dataset from file. This may not be desired in RL since the dataset is fixed and the agent will not be able to explore new states
Loading training dataset from file. This may not be desired in RL since the dataset is fixed and the agent will not be able to explore new states
Loading training dataset from file. This may not be desired in RL since the dataset is fixed and the agent will not be able to explore new states
Loading training dataset from file. This may not be desired in RL since the dataset is fixed and the agent will not be able to explore new states
Loading training dataset from file. This may not be desired in RL since the dataset is fixed and the agent will not be able to explore new states
Loading training dataset from file. This may not be desired in RL since the dataset is fixed and the agent will not be able to explore new states
Loading training dataset from file. This may not be desired in RL since the dataset is fixed and the agent will not be able to explore new states
Loading training dataset from file. This may not be desired in RL since the dataset is fixed and the agent will not be able to explore new states
Loading training dataset from file. This may not be desired in RL since the dataset is fixed and the agent will not be able to explore new states
Loading training dataset from file. This may not be desired in RL since the dataset is fixed and the agent will not be able to explore new states
Loading training dataset from file. This may not be desired in RL since the dataset is fixed and the agent will not be able to explore new states
Loading training dataset from file. This may not be desired in RL since the dataset is fixed and the agent will not be able to explore new states
Loading training dataset from file. This may not be desired in RL since the dataset is fixed and the agent will not be able to explore new states
Loading training dataset from file. This may not be desired in RL since the dataset is fixed and the agent will not be able to explore new states
Loading training dataset from file. This may not be desired in RL since the dataset is fixed and the agent will not be able to explore new states
Loading training dataset from file. This may not be desired in RL since the dataset is fixed and the agent will not be able to explore new states
Loading training dataset from file. This may not be desired in RL since the dataset is fixed and the agent will not be able to explore new states
Loading training dataset from file. This may not be desired in RL since the dataset is fixed and the agent will not be able to explore new states
Loading training dataset from file. This may not be desired in RL since the dataset is fixed and the agent will not be able to explore new states
Loading training dataset from file. This may not be desired in RL since the dataset is fixed and the agent will not be able to explore new states
Loading training dataset from file. This may not be desired in RL since the dataset is fixed and the agent will not be able to explore new states
Loading training dataset from file. This may not be desired in RL since the dataset is fixed and the agent will not be able to explore new states
Loading training dataset from file. This may not be desired in RL since the dataset is fixed and the agent will not be able to explore new states
Loading training dataset from file. This may not be desired in RL since the dataset is fixed and the agent will not be able to explore new states
Loading training dataset from file. This may not be desired in RL since the dataset is fixed and the agent will not be able to explore new states
Loading training dataset from file. This may not be desired in RL since the dataset is fixed and the agent will not be able to explore new states
Loading training dataset from file. This may not be desired in RL since the dataset is fixed and the agent will not be able to explore new states
Loading training dataset from file. This may not be desired in RL since the dataset is fixed and the agent will not be able to explore new states
Loading training dataset from file. This may not be desired in RL since the dataset is fixed and the agent will not be able to explore new states
Loading training dataset from file. This may not be desired in RL since the dataset is fixed and the agent will not be able to explore new states
Loading training dataset from file. This may not be desired in RL since the dataset is fixed and the agent will not be able to explore new states
Loading training dataset from file. This may not be desired in RL since the dataset is fixed and the agent will not be able to explore new states
Loading training dataset from file. This may not be desired in RL since the dataset is fixed and the agent will not be able to explore new states
Loading training dataset from file. This may not be desired in RL since the dataset is fixed and the agent will not be able to explore new states
Loading training dataset from file. This may not be desired in RL since the dataset is fixed and the agent will not be able to explore new states
Loading training dataset from file. This may not be desired in RL since the dataset is fixed and the agent will not be able to explore new states
Loading training dataset from file. This may not be desired in RL since the dataset is fixed and the agent will not be able to explore new states
Loading training dataset from file. This may not be desired in RL since the dataset is fixed and the agent will not be able to explore new states
Loading training dataset from file. This may not be desired in RL since the dataset is fixed and the agent will not be able to explore new states
Loading training dataset from file. This may not be desired in RL since the dataset is fixed and the agent will not be able to explore new states
Loading training dataset from file. This may not be desired in RL since the dataset is fixed and the agent will not be able to explore new states
Loading training dataset from file. This may not be desired in RL since the dataset is fixed and the agent will not be able to explore new states
Loading training dataset from file. This may not be desired in RL since the dataset is fixed and the agent will not be able to explore new states
Loading training dataset from file. This may not be desired in RL since the dataset is fixed and the agent will not be able to explore new states
Loading training dataset from file. This may not be desired in RL since the dataset is fixed and the agent will not be able to explore new states
Loading training dataset from file. This may not be desired in RL since the dataset is fixed and the agent will not be able to explore new states
Loading training dataset from file. This may not be desired in RL since the dataset is fixed and the agent will not be able to explore new states
Loading training dataset from file. This may not be desired in RL since the dataset is fixed and the agent will not be able to explore new states
Loading training dataset from file. This may not be desired in RL since the dataset is fixed and the agent will not be able to explore new states
Loading training dataset from file. This may not be desired in RL since the dataset is fixed and the agent will not be able to explore new states
Loading training dataset from file. This may not be desired in RL since the dataset is fixed and the agent will not be able to explore new states
Loading training dataset from file. This may not be desired in RL since the dataset is fixed and the agent will not be able to explore new states
Loading training dataset from file. This may not be desired in RL since the dataset is fixed and the agent will not be able to explore new states
Loading training dataset from file. This may not be desired in RL since the dataset is fixed and the agent will not be able to explore new states
Loading training dataset from file. This may not be desired in RL since the dataset is fixed and the agent will not be able to explore new states
Loading training dataset from file. This may not be desired in RL since the dataset is fixed and the agent will not be able to explore new states
Loading training dataset from file. This may not be desired in RL since the dataset is fixed and the agent will not be able to explore new states
Loading training dataset from file. This may not be desired in RL since the dataset is fixed and the agent will not be able to explore new states
Loading training dataset from file. This may not be desired in RL since the dataset is fixed and the agent will not be able to explore new states
Loading training dataset from file. This may not be desired in RL since the dataset is fixed and the agent will not be able to explore new states
Loading training dataset from file. This may not be desired in RL since the dataset is fixed and the agent will not be able to explore new states
Loading training dataset from file. This may not be desired in RL since the dataset is fixed and the agent will not be able to explore new states
Loading training dataset from file. This may not be desired in RL since the dataset is fixed and the agent will not be able to explore new states
Loading training dataset from file. This may not be desired in RL since the dataset is fixed and the agent will not be able to explore new states
Loading training dataset from file. This may not be desired in RL since the dataset is fixed and the agent will not be able to explore new states
Loading training dataset from file. This may not be desired in RL since the dataset is fixed and the agent will not be able to explore new states
Loading training dataset from file. This may not be desired in RL since the dataset is fixed and the agent will not be able to explore new states
Loading training dataset from file. This may not be desired in RL since the dataset is fixed and the agent will not be able to explore new states
Loading training dataset from file. This may not be desired in RL since the dataset is fixed and the agent will not be able to explore new states
Loading training dataset from file. This may not be desired in RL since the dataset is fixed and the agent will not be able to explore new states
Loading training dataset from file. This may not be desired in RL since the dataset is fixed and the agent will not be able to explore new states
`Trainer.fit` stopped: `max_epochs=100` reached.
Loading training dataset from file. This may not be desired in RL since the dataset is fixed and the agent will not be able to explore new states
LOCAL_RANK: 0 - CUDA_VISIBLE_DEVICES: [0]
/home/usmana/miniconda3/envs/rl4co-env/lib/python3.10/site-packages/lightning/pytorch/trainer/connectors/data_connector.py:432: PossibleUserWarning: The dataloader, test_dataloader, does not have many workers which may be a bottleneck. Consider increasing the value of the `num_workers` argument` (try 80 which is the number of cpus on this machine) in the `DataLoader` init to improve performance.
  rank_zero_warn(
wandb: Waiting for W&B process to finish... (success).
wandb: 
wandb: Run history:
wandb:               epoch ▁▁▁▂▂▂▂▂▂▃▃▃▃▃▃▄▄▄▄▄▅▅▅▅▅▆▆▆▆▆▆▇▇▇▇▇▇███
wandb:         test/reward ▁
wandb:          train/loss ▁▄▅▆▆▇▇▇▆▆▇▇▇▇▇▇▇▇▇▇▇▇▇▇▇▇▇█▇█▇█▇▇██▇▇██
wandb:        train/reward ▁▄▆▅▆▇▆▇▆▇▇▇▇▇▇▇▇█████▇▇███████████▇█▇█▆
wandb: trainer/global_step ▁▁▁▂▂▂▂▂▂▃▃▃▃▃▃▄▄▄▄▄▅▅▅▅▅▅▆▆▆▆▆▇▇▇▇▇▇███
wandb:          val/reward █▅▂▃▁▂▂▃▁▄▃▄▃▄▆▄▇▆▅▇▇▅▇▇▇▆▇▆▇▇▇▇▇▇▇▇██▇█
wandb: 
wandb: Run summary:
wandb:               epoch 100
wandb:         test/reward -4.04401
wandb:          train/loss -0.01348
wandb:        train/reward -3.93936
wandb: trainer/global_step 19600
wandb:          val/reward -4.04585
wandb: 
wandb: You can sync this run to the cloud by running:
wandb: wandb sync /home/usmana/rl4co60/wandb/offline-run-20231203_082726-jsgjterh
wandb: Find logs at: ./wandb/offline-run-20231203_082726-jsgjterh/logs
/home/usmana/miniconda3/envs/rl4co-env/lib/python3.10/site-packages/torchrl/__init__.py:26: UserWarning: failed to set start method to spawn, and current start method for mp is fork.
  warn(
wandb: Tracking run with wandb version 0.15.12
wandb: W&B syncing is set to `offline` in this directory.  
wandb: Run `wandb online` or set WANDB_MODE=online to enable cloud syncing.
/home/usmana/miniconda3/envs/rl4co-env/lib/python3.10/site-packages/lightning/pytorch/loggers/wandb.py:396: UserWarning: There is a wandb run already in progress and newly created instances of `WandbLogger` will reuse this run. If this is not desired, call `wandb.finish()` before instantiating `WandbLogger`.
  rank_zero_warn(
Traceback (most recent call last):
  File "/home/usmana/rl4co60/attn50knn_critic.py", line 24, in <module>
    env = TSPEnv(num_loc=50, batch_size=128, train_file = "rl4co/data/data/tsp/tsp50_train_gen_seed1111.npz", test_file =  "rl4co/data/data/tsp/tsp50_test_seed1234.npz", val_file = "rl4co/data/data/tsp/tsp50_val_seed4321.npz")
NameError: name 'TSPEnv' is not defined
wandb: Waiting for W&B process to finish... (failed 1).
wandb: You can sync this run to the cloud by running:
wandb: wandb sync /home/usmana/rl4co60/wandb/offline-run-20231203_090644-nnivexfa
wandb: Find logs at: ./wandb/offline-run-20231203_090644-nnivexfa/logs
/home/usmana/miniconda3/envs/rl4co-env/lib/python3.10/site-packages/torchrl/__init__.py:26: UserWarning: failed to set start method to spawn, and current start method for mp is fork.
  warn(
wandb: Tracking run with wandb version 0.15.12
wandb: W&B syncing is set to `offline` in this directory.  
wandb: Run `wandb online` or set WANDB_MODE=online to enable cloud syncing.
/home/usmana/miniconda3/envs/rl4co-env/lib/python3.10/site-packages/lightning/pytorch/loggers/wandb.py:396: UserWarning: There is a wandb run already in progress and newly created instances of `WandbLogger` will reuse this run. If this is not desired, call `wandb.finish()` before instantiating `WandbLogger`.
  rank_zero_warn(
Traceback (most recent call last):
  File "/home/usmana/rl4co60/attn50knn_gcn.py", line 42, in <module>
    env = TSPEnv(num_loc=50, batch_size = 128, train_file = "rl4co/data/data/tsp/tsp50_train_gen_seed1111.npz", test_file =  "rl4co/data/data/tsp/tsp50_test_seed1234.npz", val_file = "rl4co/data/data/tsp/tsp50_val_seed4321.npz")
NameError: name 'TSPEnv' is not defined
wandb: Waiting for W&B process to finish... (failed 1).
wandb: You can sync this run to the cloud by running:
wandb: wandb sync /home/usmana/rl4co60/wandb/offline-run-20231203_090702-3dmzsgq3
wandb: Find logs at: ./wandb/offline-run-20231203_090702-3dmzsgq3/logs
/home/usmana/miniconda3/envs/rl4co-env/lib/python3.10/site-packages/torchrl/__init__.py:26: UserWarning: failed to set start method to spawn, and current start method for mp is fork.
  warn(
wandb: Tracking run with wandb version 0.15.12
wandb: W&B syncing is set to `offline` in this directory.  
wandb: Run `wandb online` or set WANDB_MODE=online to enable cloud syncing.
/home/usmana/miniconda3/envs/rl4co-env/lib/python3.10/site-packages/lightning/pytorch/loggers/wandb.py:396: UserWarning: There is a wandb run already in progress and newly created instances of `WandbLogger` will reuse this run. If this is not desired, call `wandb.finish()` before instantiating `WandbLogger`.
  rank_zero_warn(
Traceback (most recent call last):
  File "/home/usmana/rl4co60/attn50knn_gru.py", line 42, in <module>
    env = TSPEnv(num_loc=50, batch_size = 128, train_file = "rl4co/data/data/tsp/tsp50_train_gen_seed1111.npz", test_file =  "rl4co/data/data/tsp/tsp50_test_seed1234.npz", val_file = "rl4co/data/data/tsp/tsp50_val_seed4321.npz")
NameError: name 'TSPEnv' is not defined
wandb: Waiting for W&B process to finish... (failed 1).
wandb: You can sync this run to the cloud by running:
wandb: wandb sync /home/usmana/rl4co60/wandb/offline-run-20231203_090719-o209sm11
wandb: Find logs at: ./wandb/offline-run-20231203_090719-o209sm11/logs
/home/usmana/miniconda3/envs/rl4co-env/lib/python3.10/site-packages/torchrl/__init__.py:26: UserWarning: failed to set start method to spawn, and current start method for mp is fork.
  warn(
wandb: Tracking run with wandb version 0.15.12
wandb: W&B syncing is set to `offline` in this directory.  
wandb: Run `wandb online` or set WANDB_MODE=online to enable cloud syncing.
/home/usmana/miniconda3/envs/rl4co-env/lib/python3.10/site-packages/lightning/pytorch/loggers/wandb.py:396: UserWarning: There is a wandb run already in progress and newly created instances of `WandbLogger` will reuse this run. If this is not desired, call `wandb.finish()` before instantiating `WandbLogger`.
  rank_zero_warn(
Traceback (most recent call last):
  File "/home/usmana/rl4co60/attn50knn_transformer.py", line 12, in <module>
    transformer_encoder = GraphTransfromerEncoder(
NameError: name 'GraphTransfromerEncoder' is not defined
wandb: Waiting for W&B process to finish... (failed 1).
wandb: You can sync this run to the cloud by running:
wandb: wandb sync /home/usmana/rl4co60/wandb/offline-run-20231203_090732-rkcpt720
wandb: Find logs at: ./wandb/offline-run-20231203_090732-rkcpt720/logs
/home/usmana/miniconda3/envs/rl4co-env/lib/python3.10/site-packages/torchrl/__init__.py:26: UserWarning: failed to set start method to spawn, and current start method for mp is fork.
  warn(
wandb: Tracking run with wandb version 0.15.12
wandb: W&B syncing is set to `offline` in this directory.  
wandb: Run `wandb online` or set WANDB_MODE=online to enable cloud syncing.
/home/usmana/miniconda3/envs/rl4co-env/lib/python3.10/site-packages/lightning/pytorch/loggers/wandb.py:396: UserWarning: There is a wandb run already in progress and newly created instances of `WandbLogger` will reuse this run. If this is not desired, call `wandb.finish()` before instantiating `WandbLogger`.
  rank_zero_warn(
Traceback (most recent call last):
  File "/home/usmana/rl4co60/pomo50knn_gat.py", line 40, in <module>
    env = TSPEnv(num_loc=50, batch_size=128, train_file = "rl4co/data/data/tsp/tsp50_train_gen_seed1111.npz", test_file =  "rl4co/data/data/tsp/tsp50_test_seed1234.npz", val_file = "rl4co/data/data/tsp/tsp50_val_seed4321.npz")
NameError: name 'TSPEnv' is not defined
wandb: Waiting for W&B process to finish... (failed 1).
wandb: You can sync this run to the cloud by running:
wandb: wandb sync /home/usmana/rl4co60/wandb/offline-run-20231203_090746-45293psa
wandb: Find logs at: ./wandb/offline-run-20231203_090746-45293psa/logs
  File "/home/usmana/rl4co60/ppo50knn_gat.py", line 1
    yfrom rl4co.envs.tsp import TSPEnv
          ^^^^^
SyntaxError: invalid syntax
wandb: Tracking run with wandb version 0.15.12
wandb: W&B syncing is set to `offline` in this directory.  
wandb: Run `wandb online` or set WANDB_MODE=online to enable cloud syncing.
/home/usmana/miniconda3/envs/rl4co-env/lib/python3.10/site-packages/lightning/pytorch/loggers/wandb.py:396: UserWarning: There is a wandb run already in progress and newly created instances of `WandbLogger` will reuse this run. If this is not desired, call `wandb.finish()` before instantiating `WandbLogger`.
  rank_zero_warn(
/home/usmana/miniconda3/envs/rl4co-env/lib/python3.10/site-packages/lightning/pytorch/utilities/parsing.py:196: UserWarning: Attribute 'env' is an instance of `nn.Module` and is already saved during checkpointing. It is recommended to ignore them using `self.save_hyperparameters(ignore=['env'])`.
  rank_zero_warn(
/home/usmana/miniconda3/envs/rl4co-env/lib/python3.10/site-packages/lightning/pytorch/utilities/parsing.py:196: UserWarning: Attribute 'policy' is an instance of `nn.Module` and is already saved during checkpointing. It is recommended to ignore them using `self.save_hyperparameters(ignore=['policy'])`.
  rank_zero_warn(
/home/usmana/miniconda3/envs/rl4co-env/lib/python3.10/site-packages/torch/functional.py:504: UserWarning: torch.meshgrid: in an upcoming release, it will be required to pass the indexing argument. (Triggered internally at ../aten/src/ATen/native/TensorShape.cpp:3483.)
  return _VF.meshgrid(tensors, **kwargs)  # type: ignore[attr-defined]
/home/usmana/miniconda3/envs/rl4co-env/lib/python3.10/site-packages/lightning/fabric/plugins/environments/slurm.py:165: PossibleUserWarning: The `srun` command is available on your system but is not used. HINT: If your intention is to run Lightning on SLURM, prepend your python command with `srun` like so: srun python symnco50knn_gat.py ...
  rank_zero_warn(
Using 16bit Automatic Mixed Precision (AMP)
Trainer already configured with model summary callbacks: [<class 'lightning.pytorch.callbacks.rich_model_summary.RichModelSummary'>]. Skipping setting a default `ModelSummary` callback.
GPU available: True (cuda), used: True
TPU available: False, using: 0 TPU cores
IPU available: False, using: 0 IPUs
HPU available: False, using: 0 HPUs
Loading training dataset from file. This may not be desired in RL since the dataset is fixed and the agent will not be able to explore new states
LOCAL_RANK: 0 - CUDA_VISIBLE_DEVICES: [0]
/home/usmana/miniconda3/envs/rl4co-env/lib/python3.10/site-packages/lightning/pytorch/trainer/connectors/data_connector.py:432: PossibleUserWarning: The dataloader, val_dataloader, does not have many workers which may be a bottleneck. Consider increasing the value of the `num_workers` argument` (try 80 which is the number of cpus on this machine) in the `DataLoader` init to improve performance.
  rank_zero_warn(
/home/usmana/miniconda3/envs/rl4co-env/lib/python3.10/site-packages/lightning/pytorch/trainer/connectors/data_connector.py:432: PossibleUserWarning: The dataloader, train_dataloader, does not have many workers which may be a bottleneck. Consider increasing the value of the `num_workers` argument` (try 80 which is the number of cpus on this machine) in the `DataLoader` init to improve performance.
  rank_zero_warn(
Loading training dataset from file. This may not be desired in RL since the dataset is fixed and the agent will not be able to explore new states
Loading training dataset from file. This may not be desired in RL since the dataset is fixed and the agent will not be able to explore new states
Loading training dataset from file. This may not be desired in RL since the dataset is fixed and the agent will not be able to explore new states
Loading training dataset from file. This may not be desired in RL since the dataset is fixed and the agent will not be able to explore new states
Loading training dataset from file. This may not be desired in RL since the dataset is fixed and the agent will not be able to explore new states
Loading training dataset from file. This may not be desired in RL since the dataset is fixed and the agent will not be able to explore new states
Loading training dataset from file. This may not be desired in RL since the dataset is fixed and the agent will not be able to explore new states
Loading training dataset from file. This may not be desired in RL since the dataset is fixed and the agent will not be able to explore new states
Loading training dataset from file. This may not be desired in RL since the dataset is fixed and the agent will not be able to explore new states
Loading training dataset from file. This may not be desired in RL since the dataset is fixed and the agent will not be able to explore new states
Loading training dataset from file. This may not be desired in RL since the dataset is fixed and the agent will not be able to explore new states
Loading training dataset from file. This may not be desired in RL since the dataset is fixed and the agent will not be able to explore new states
Loading training dataset from file. This may not be desired in RL since the dataset is fixed and the agent will not be able to explore new states
Loading training dataset from file. This may not be desired in RL since the dataset is fixed and the agent will not be able to explore new states
Loading training dataset from file. This may not be desired in RL since the dataset is fixed and the agent will not be able to explore new states
Loading training dataset from file. This may not be desired in RL since the dataset is fixed and the agent will not be able to explore new states
Loading training dataset from file. This may not be desired in RL since the dataset is fixed and the agent will not be able to explore new states
Loading training dataset from file. This may not be desired in RL since the dataset is fixed and the agent will not be able to explore new states
Loading training dataset from file. This may not be desired in RL since the dataset is fixed and the agent will not be able to explore new states
Loading training dataset from file. This may not be desired in RL since the dataset is fixed and the agent will not be able to explore new states
Loading training dataset from file. This may not be desired in RL since the dataset is fixed and the agent will not be able to explore new states
Loading training dataset from file. This may not be desired in RL since the dataset is fixed and the agent will not be able to explore new states
Loading training dataset from file. This may not be desired in RL since the dataset is fixed and the agent will not be able to explore new states
Loading training dataset from file. This may not be desired in RL since the dataset is fixed and the agent will not be able to explore new states
Loading training dataset from file. This may not be desired in RL since the dataset is fixed and the agent will not be able to explore new states
Loading training dataset from file. This may not be desired in RL since the dataset is fixed and the agent will not be able to explore new states
Loading training dataset from file. This may not be desired in RL since the dataset is fixed and the agent will not be able to explore new states
Loading training dataset from file. This may not be desired in RL since the dataset is fixed and the agent will not be able to explore new states
Loading training dataset from file. This may not be desired in RL since the dataset is fixed and the agent will not be able to explore new states
Loading training dataset from file. This may not be desired in RL since the dataset is fixed and the agent will not be able to explore new states
Loading training dataset from file. This may not be desired in RL since the dataset is fixed and the agent will not be able to explore new states
Loading training dataset from file. This may not be desired in RL since the dataset is fixed and the agent will not be able to explore new states
Loading training dataset from file. This may not be desired in RL since the dataset is fixed and the agent will not be able to explore new states
Loading training dataset from file. This may not be desired in RL since the dataset is fixed and the agent will not be able to explore new states
Loading training dataset from file. This may not be desired in RL since the dataset is fixed and the agent will not be able to explore new states
Loading training dataset from file. This may not be desired in RL since the dataset is fixed and the agent will not be able to explore new states
Loading training dataset from file. This may not be desired in RL since the dataset is fixed and the agent will not be able to explore new states
Loading training dataset from file. This may not be desired in RL since the dataset is fixed and the agent will not be able to explore new states
Loading training dataset from file. This may not be desired in RL since the dataset is fixed and the agent will not be able to explore new states
Loading training dataset from file. This may not be desired in RL since the dataset is fixed and the agent will not be able to explore new states
Loading training dataset from file. This may not be desired in RL since the dataset is fixed and the agent will not be able to explore new states
Loading training dataset from file. This may not be desired in RL since the dataset is fixed and the agent will not be able to explore new states
Loading training dataset from file. This may not be desired in RL since the dataset is fixed and the agent will not be able to explore new states
Loading training dataset from file. This may not be desired in RL since the dataset is fixed and the agent will not be able to explore new states
Loading training dataset from file. This may not be desired in RL since the dataset is fixed and the agent will not be able to explore new states
Loading training dataset from file. This may not be desired in RL since the dataset is fixed and the agent will not be able to explore new states
Loading training dataset from file. This may not be desired in RL since the dataset is fixed and the agent will not be able to explore new states
Loading training dataset from file. This may not be desired in RL since the dataset is fixed and the agent will not be able to explore new states
Loading training dataset from file. This may not be desired in RL since the dataset is fixed and the agent will not be able to explore new states
Loading training dataset from file. This may not be desired in RL since the dataset is fixed and the agent will not be able to explore new states
Loading training dataset from file. This may not be desired in RL since the dataset is fixed and the agent will not be able to explore new states
Loading training dataset from file. This may not be desired in RL since the dataset is fixed and the agent will not be able to explore new states
Loading training dataset from file. This may not be desired in RL since the dataset is fixed and the agent will not be able to explore new states
Loading training dataset from file. This may not be desired in RL since the dataset is fixed and the agent will not be able to explore new states
Loading training dataset from file. This may not be desired in RL since the dataset is fixed and the agent will not be able to explore new states
Loading training dataset from file. This may not be desired in RL since the dataset is fixed and the agent will not be able to explore new states
Loading training dataset from file. This may not be desired in RL since the dataset is fixed and the agent will not be able to explore new states
Loading training dataset from file. This may not be desired in RL since the dataset is fixed and the agent will not be able to explore new states
Loading training dataset from file. This may not be desired in RL since the dataset is fixed and the agent will not be able to explore new states
Loading training dataset from file. This may not be desired in RL since the dataset is fixed and the agent will not be able to explore new states
Loading training dataset from file. This may not be desired in RL since the dataset is fixed and the agent will not be able to explore new states
Loading training dataset from file. This may not be desired in RL since the dataset is fixed and the agent will not be able to explore new states
Loading training dataset from file. This may not be desired in RL since the dataset is fixed and the agent will not be able to explore new states
Loading training dataset from file. This may not be desired in RL since the dataset is fixed and the agent will not be able to explore new states
Loading training dataset from file. This may not be desired in RL since the dataset is fixed and the agent will not be able to explore new states
Loading training dataset from file. This may not be desired in RL since the dataset is fixed and the agent will not be able to explore new states
Loading training dataset from file. This may not be desired in RL since the dataset is fixed and the agent will not be able to explore new states
Loading training dataset from file. This may not be desired in RL since the dataset is fixed and the agent will not be able to explore new states
Loading training dataset from file. This may not be desired in RL since the dataset is fixed and the agent will not be able to explore new states
Loading training dataset from file. This may not be desired in RL since the dataset is fixed and the agent will not be able to explore new states
Loading training dataset from file. This may not be desired in RL since the dataset is fixed and the agent will not be able to explore new states
Loading training dataset from file. This may not be desired in RL since the dataset is fixed and the agent will not be able to explore new states
Loading training dataset from file. This may not be desired in RL since the dataset is fixed and the agent will not be able to explore new states
Loading training dataset from file. This may not be desired in RL since the dataset is fixed and the agent will not be able to explore new states
Loading training dataset from file. This may not be desired in RL since the dataset is fixed and the agent will not be able to explore new states
Loading training dataset from file. This may not be desired in RL since the dataset is fixed and the agent will not be able to explore new states
Loading training dataset from file. This may not be desired in RL since the dataset is fixed and the agent will not be able to explore new states
Loading training dataset from file. This may not be desired in RL since the dataset is fixed and the agent will not be able to explore new states
Loading training dataset from file. This may not be desired in RL since the dataset is fixed and the agent will not be able to explore new states
Loading training dataset from file. This may not be desired in RL since the dataset is fixed and the agent will not be able to explore new states
Loading training dataset from file. This may not be desired in RL since the dataset is fixed and the agent will not be able to explore new states
Loading training dataset from file. This may not be desired in RL since the dataset is fixed and the agent will not be able to explore new states
Loading training dataset from file. This may not be desired in RL since the dataset is fixed and the agent will not be able to explore new states
Loading training dataset from file. This may not be desired in RL since the dataset is fixed and the agent will not be able to explore new states
Loading training dataset from file. This may not be desired in RL since the dataset is fixed and the agent will not be able to explore new states
Loading training dataset from file. This may not be desired in RL since the dataset is fixed and the agent will not be able to explore new states
Loading training dataset from file. This may not be desired in RL since the dataset is fixed and the agent will not be able to explore new states
Loading training dataset from file. This may not be desired in RL since the dataset is fixed and the agent will not be able to explore new states
Loading training dataset from file. This may not be desired in RL since the dataset is fixed and the agent will not be able to explore new states
Loading training dataset from file. This may not be desired in RL since the dataset is fixed and the agent will not be able to explore new states
Loading training dataset from file. This may not be desired in RL since the dataset is fixed and the agent will not be able to explore new states
Loading training dataset from file. This may not be desired in RL since the dataset is fixed and the agent will not be able to explore new states
Loading training dataset from file. This may not be desired in RL since the dataset is fixed and the agent will not be able to explore new states
Loading training dataset from file. This may not be desired in RL since the dataset is fixed and the agent will not be able to explore new states
Loading training dataset from file. This may not be desired in RL since the dataset is fixed and the agent will not be able to explore new states
Loading training dataset from file. This may not be desired in RL since the dataset is fixed and the agent will not be able to explore new states
Loading training dataset from file. This may not be desired in RL since the dataset is fixed and the agent will not be able to explore new states
Loading training dataset from file. This may not be desired in RL since the dataset is fixed and the agent will not be able to explore new states
Loading training dataset from file. This may not be desired in RL since the dataset is fixed and the agent will not be able to explore new states
Loading training dataset from file. This may not be desired in RL since the dataset is fixed and the agent will not be able to explore new states
`Trainer.fit` stopped: `max_epochs=100` reached.
Loading training dataset from file. This may not be desired in RL since the dataset is fixed and the agent will not be able to explore new states
LOCAL_RANK: 0 - CUDA_VISIBLE_DEVICES: [0]
/home/usmana/miniconda3/envs/rl4co-env/lib/python3.10/site-packages/lightning/pytorch/trainer/connectors/data_connector.py:432: PossibleUserWarning: The dataloader, test_dataloader, does not have many workers which may be a bottleneck. Consider increasing the value of the `num_workers` argument` (try 80 which is the number of cpus on this machine) in the `DataLoader` init to improve performance.
  rank_zero_warn(
wandb: Waiting for W&B process to finish... (success).
wandb: 
wandb: Run history:
wandb:               epoch ▁▁▁▂▂▂▂▂▂▃▃▃▃▃▃▄▄▄▄▄▅▅▅▅▅▆▆▆▆▆▆▇▇▇▇▇▇███
wandb:         test/reward ▁
wandb:          train/loss ▁▅▄▅▆▆▇▇▇▇▇▇▅▇▅█▇█▇█▇▇██████████████████
wandb:        train/reward ▁▄▄▅▆▆▆▇▇▇▇▇▇▇▇▇▇▇▇█████████████████████
wandb: trainer/global_step ▁▁▁▂▂▂▂▂▂▃▃▃▃▃▃▄▄▄▄▄▅▅▅▅▅▅▆▆▆▆▆▇▇▇▇▇▇███
wandb:          val/reward █▃▁▁▁▁▁▁▁▂▂▂▂▂▂▂▂▃▃▂▂▃▃▃▃▃▃▄▃▃▃▃▃▃▄▃▄▄▃▄
wandb: 
wandb: Run summary:
wandb:               epoch 100
wandb:         test/reward -20.47862
wandb:          train/loss -0.15093
wandb:        train/reward -5.96453
wandb: trainer/global_step 19600
wandb:          val/reward -20.52865
wandb: 
wandb: You can sync this run to the cloud by running:
wandb: wandb sync /home/usmana/rl4co60/wandb/offline-run-20231203_090800-7ag2dpwb
wandb: Find logs at: ./wandb/offline-run-20231203_090800-7ag2dpwb/logs
