Traceback (most recent call last):
  File "/home/usmana/rl4co60/attn20_gat.py", line 1, in <module>
    from rl4co.envs.tsp import TSPEnv
  File "/home/usmana/rl4co60/rl4co/envs/__init__.py", line 15, in <module>
    from rl4co.envs.tsp import TSPEnv
  File "/home/usmana/rl4co60/rl4co/envs/tsp.py", line 105
    graph = self.knn_func2(dist, int(num_loc*0.6)).to(device)
TabError: inconsistent use of tabs and spaces in indentation
