wandb: Tracking run with wandb version 0.15.12
wandb: W&B syncing is set to `offline` in this directory.  
wandb: Run `wandb online` or set WANDB_MODE=online to enable cloud syncing.
/home/usmana/miniconda3/envs/rl4co-env/lib/python3.10/site-packages/lightning/pytorch/loggers/wandb.py:396: UserWarning: There is a wandb run already in progress and newly created instances of `WandbLogger` will reuse this run. If this is not desired, call `wandb.finish()` before instantiating `WandbLogger`.
  rank_zero_warn(
/home/usmana/miniconda3/envs/rl4co-env/lib/python3.10/site-packages/lightning/pytorch/utilities/parsing.py:196: UserWarning: Attribute 'env' is an instance of `nn.Module` and is already saved during checkpointing. It is recommended to ignore them using `self.save_hyperparameters(ignore=['env'])`.
  rank_zero_warn(
/home/usmana/miniconda3/envs/rl4co-env/lib/python3.10/site-packages/lightning/pytorch/utilities/parsing.py:196: UserWarning: Attribute 'policy' is an instance of `nn.Module` and is already saved during checkpointing. It is recommended to ignore them using `self.save_hyperparameters(ignore=['policy'])`.
  rank_zero_warn(
/home/usmana/miniconda3/envs/rl4co-env/lib/python3.10/site-packages/torch/functional.py:504: UserWarning: torch.meshgrid: in an upcoming release, it will be required to pass the indexing argument. (Triggered internally at ../aten/src/ATen/native/TensorShape.cpp:3483.)
  return _VF.meshgrid(tensors, **kwargs)  # type: ignore[attr-defined]
/home/usmana/miniconda3/envs/rl4co-env/lib/python3.10/site-packages/lightning/fabric/plugins/environments/slurm.py:165: PossibleUserWarning: The `srun` command is available on your system but is not used. HINT: If your intention is to run Lightning on SLURM, prepend your python command with `srun` like so: srun python attn50_gat.py ...
  rank_zero_warn(
Using 16bit Automatic Mixed Precision (AMP)
Trainer already configured with model summary callbacks: [<class 'lightning.pytorch.callbacks.rich_model_summary.RichModelSummary'>]. Skipping setting a default `ModelSummary` callback.
GPU available: True (cuda), used: True
TPU available: False, using: 0 TPU cores
IPU available: False, using: 0 IPUs
HPU available: False, using: 0 HPUs
Loading training dataset from file. This may not be desired in RL since the dataset is fixed and the agent will not be able to explore new states
Loading training dataset from file. This may not be desired in RL since the dataset is fixed and the agent will not be able to explore new states
LOCAL_RANK: 0 - CUDA_VISIBLE_DEVICES: [0]
/home/usmana/miniconda3/envs/rl4co-env/lib/python3.10/site-packages/lightning/pytorch/trainer/connectors/data_connector.py:432: PossibleUserWarning: The dataloader, val_dataloader, does not have many workers which may be a bottleneck. Consider increasing the value of the `num_workers` argument` (try 80 which is the number of cpus on this machine) in the `DataLoader` init to improve performance.
  rank_zero_warn(
/home/usmana/miniconda3/envs/rl4co-env/lib/python3.10/site-packages/lightning/pytorch/trainer/connectors/data_connector.py:432: PossibleUserWarning: The dataloader, train_dataloader, does not have many workers which may be a bottleneck. Consider increasing the value of the `num_workers` argument` (try 80 which is the number of cpus on this machine) in the `DataLoader` init to improve performance.
  rank_zero_warn(
Loading training dataset from file. This may not be desired in RL since the dataset is fixed and the agent will not be able to explore new states
Loading training dataset from file. This may not be desired in RL since the dataset is fixed and the agent will not be able to explore new states
Loading training dataset from file. This may not be desired in RL since the dataset is fixed and the agent will not be able to explore new states
Loading training dataset from file. This may not be desired in RL since the dataset is fixed and the agent will not be able to explore new states
Loading training dataset from file. This may not be desired in RL since the dataset is fixed and the agent will not be able to explore new states
Loading training dataset from file. This may not be desired in RL since the dataset is fixed and the agent will not be able to explore new states
Loading training dataset from file. This may not be desired in RL since the dataset is fixed and the agent will not be able to explore new states
Loading training dataset from file. This may not be desired in RL since the dataset is fixed and the agent will not be able to explore new states
Loading training dataset from file. This may not be desired in RL since the dataset is fixed and the agent will not be able to explore new states
Loading training dataset from file. This may not be desired in RL since the dataset is fixed and the agent will not be able to explore new states
Loading training dataset from file. This may not be desired in RL since the dataset is fixed and the agent will not be able to explore new states
Loading training dataset from file. This may not be desired in RL since the dataset is fixed and the agent will not be able to explore new states
Loading training dataset from file. This may not be desired in RL since the dataset is fixed and the agent will not be able to explore new states
Loading training dataset from file. This may not be desired in RL since the dataset is fixed and the agent will not be able to explore new states
Loading training dataset from file. This may not be desired in RL since the dataset is fixed and the agent will not be able to explore new states
Loading training dataset from file. This may not be desired in RL since the dataset is fixed and the agent will not be able to explore new states
Loading training dataset from file. This may not be desired in RL since the dataset is fixed and the agent will not be able to explore new states
Loading training dataset from file. This may not be desired in RL since the dataset is fixed and the agent will not be able to explore new states
Loading training dataset from file. This may not be desired in RL since the dataset is fixed and the agent will not be able to explore new states
Loading training dataset from file. This may not be desired in RL since the dataset is fixed and the agent will not be able to explore new states
Loading training dataset from file. This may not be desired in RL since the dataset is fixed and the agent will not be able to explore new states
Loading training dataset from file. This may not be desired in RL since the dataset is fixed and the agent will not be able to explore new states
Loading training dataset from file. This may not be desired in RL since the dataset is fixed and the agent will not be able to explore new states
Loading training dataset from file. This may not be desired in RL since the dataset is fixed and the agent will not be able to explore new states
Loading training dataset from file. This may not be desired in RL since the dataset is fixed and the agent will not be able to explore new states
Loading training dataset from file. This may not be desired in RL since the dataset is fixed and the agent will not be able to explore new states
Loading training dataset from file. This may not be desired in RL since the dataset is fixed and the agent will not be able to explore new states
Loading training dataset from file. This may not be desired in RL since the dataset is fixed and the agent will not be able to explore new states
Loading training dataset from file. This may not be desired in RL since the dataset is fixed and the agent will not be able to explore new states
Loading training dataset from file. This may not be desired in RL since the dataset is fixed and the agent will not be able to explore new states
Loading training dataset from file. This may not be desired in RL since the dataset is fixed and the agent will not be able to explore new states
Loading training dataset from file. This may not be desired in RL since the dataset is fixed and the agent will not be able to explore new states
Loading training dataset from file. This may not be desired in RL since the dataset is fixed and the agent will not be able to explore new states
Loading training dataset from file. This may not be desired in RL since the dataset is fixed and the agent will not be able to explore new states
Loading training dataset from file. This may not be desired in RL since the dataset is fixed and the agent will not be able to explore new states
Loading training dataset from file. This may not be desired in RL since the dataset is fixed and the agent will not be able to explore new states
Loading training dataset from file. This may not be desired in RL since the dataset is fixed and the agent will not be able to explore new states
Loading training dataset from file. This may not be desired in RL since the dataset is fixed and the agent will not be able to explore new states
Loading training dataset from file. This may not be desired in RL since the dataset is fixed and the agent will not be able to explore new states
Loading training dataset from file. This may not be desired in RL since the dataset is fixed and the agent will not be able to explore new states
Loading training dataset from file. This may not be desired in RL since the dataset is fixed and the agent will not be able to explore new states
Loading training dataset from file. This may not be desired in RL since the dataset is fixed and the agent will not be able to explore new states
Loading training dataset from file. This may not be desired in RL since the dataset is fixed and the agent will not be able to explore new states
Loading training dataset from file. This may not be desired in RL since the dataset is fixed and the agent will not be able to explore new states
Loading training dataset from file. This may not be desired in RL since the dataset is fixed and the agent will not be able to explore new states
Loading training dataset from file. This may not be desired in RL since the dataset is fixed and the agent will not be able to explore new states
Loading training dataset from file. This may not be desired in RL since the dataset is fixed and the agent will not be able to explore new states
Loading training dataset from file. This may not be desired in RL since the dataset is fixed and the agent will not be able to explore new states
Loading training dataset from file. This may not be desired in RL since the dataset is fixed and the agent will not be able to explore new states
Loading training dataset from file. This may not be desired in RL since the dataset is fixed and the agent will not be able to explore new states
Loading training dataset from file. This may not be desired in RL since the dataset is fixed and the agent will not be able to explore new states
Loading training dataset from file. This may not be desired in RL since the dataset is fixed and the agent will not be able to explore new states
Loading training dataset from file. This may not be desired in RL since the dataset is fixed and the agent will not be able to explore new states
Loading training dataset from file. This may not be desired in RL since the dataset is fixed and the agent will not be able to explore new states
Loading training dataset from file. This may not be desired in RL since the dataset is fixed and the agent will not be able to explore new states
Loading training dataset from file. This may not be desired in RL since the dataset is fixed and the agent will not be able to explore new states
Loading training dataset from file. This may not be desired in RL since the dataset is fixed and the agent will not be able to explore new states
Loading training dataset from file. This may not be desired in RL since the dataset is fixed and the agent will not be able to explore new states
Loading training dataset from file. This may not be desired in RL since the dataset is fixed and the agent will not be able to explore new states
Loading training dataset from file. This may not be desired in RL since the dataset is fixed and the agent will not be able to explore new states
Loading training dataset from file. This may not be desired in RL since the dataset is fixed and the agent will not be able to explore new states
Loading training dataset from file. This may not be desired in RL since the dataset is fixed and the agent will not be able to explore new states
Loading training dataset from file. This may not be desired in RL since the dataset is fixed and the agent will not be able to explore new states
Loading training dataset from file. This may not be desired in RL since the dataset is fixed and the agent will not be able to explore new states
Loading training dataset from file. This may not be desired in RL since the dataset is fixed and the agent will not be able to explore new states
Loading training dataset from file. This may not be desired in RL since the dataset is fixed and the agent will not be able to explore new states
Loading training dataset from file. This may not be desired in RL since the dataset is fixed and the agent will not be able to explore new states
Loading training dataset from file. This may not be desired in RL since the dataset is fixed and the agent will not be able to explore new states
Loading training dataset from file. This may not be desired in RL since the dataset is fixed and the agent will not be able to explore new states
Loading training dataset from file. This may not be desired in RL since the dataset is fixed and the agent will not be able to explore new states
Loading training dataset from file. This may not be desired in RL since the dataset is fixed and the agent will not be able to explore new states
Loading training dataset from file. This may not be desired in RL since the dataset is fixed and the agent will not be able to explore new states
Loading training dataset from file. This may not be desired in RL since the dataset is fixed and the agent will not be able to explore new states
Loading training dataset from file. This may not be desired in RL since the dataset is fixed and the agent will not be able to explore new states
Loading training dataset from file. This may not be desired in RL since the dataset is fixed and the agent will not be able to explore new states
Loading training dataset from file. This may not be desired in RL since the dataset is fixed and the agent will not be able to explore new states
Loading training dataset from file. This may not be desired in RL since the dataset is fixed and the agent will not be able to explore new states
Loading training dataset from file. This may not be desired in RL since the dataset is fixed and the agent will not be able to explore new states
Loading training dataset from file. This may not be desired in RL since the dataset is fixed and the agent will not be able to explore new states
Loading training dataset from file. This may not be desired in RL since the dataset is fixed and the agent will not be able to explore new states
Loading training dataset from file. This may not be desired in RL since the dataset is fixed and the agent will not be able to explore new states
Loading training dataset from file. This may not be desired in RL since the dataset is fixed and the agent will not be able to explore new states
Loading training dataset from file. This may not be desired in RL since the dataset is fixed and the agent will not be able to explore new states
Loading training dataset from file. This may not be desired in RL since the dataset is fixed and the agent will not be able to explore new states
Loading training dataset from file. This may not be desired in RL since the dataset is fixed and the agent will not be able to explore new states
Loading training dataset from file. This may not be desired in RL since the dataset is fixed and the agent will not be able to explore new states
Loading training dataset from file. This may not be desired in RL since the dataset is fixed and the agent will not be able to explore new states
Loading training dataset from file. This may not be desired in RL since the dataset is fixed and the agent will not be able to explore new states
Loading training dataset from file. This may not be desired in RL since the dataset is fixed and the agent will not be able to explore new states
Loading training dataset from file. This may not be desired in RL since the dataset is fixed and the agent will not be able to explore new states
Loading training dataset from file. This may not be desired in RL since the dataset is fixed and the agent will not be able to explore new states
Loading training dataset from file. This may not be desired in RL since the dataset is fixed and the agent will not be able to explore new states
Loading training dataset from file. This may not be desired in RL since the dataset is fixed and the agent will not be able to explore new states
Loading training dataset from file. This may not be desired in RL since the dataset is fixed and the agent will not be able to explore new states
Loading training dataset from file. This may not be desired in RL since the dataset is fixed and the agent will not be able to explore new states
Loading training dataset from file. This may not be desired in RL since the dataset is fixed and the agent will not be able to explore new states
Loading training dataset from file. This may not be desired in RL since the dataset is fixed and the agent will not be able to explore new states
Loading training dataset from file. This may not be desired in RL since the dataset is fixed and the agent will not be able to explore new states
Loading training dataset from file. This may not be desired in RL since the dataset is fixed and the agent will not be able to explore new states
Loading training dataset from file. This may not be desired in RL since the dataset is fixed and the agent will not be able to explore new states
Loading training dataset from file. This may not be desired in RL since the dataset is fixed and the agent will not be able to explore new states
Loading training dataset from file. This may not be desired in RL since the dataset is fixed and the agent will not be able to explore new states
Loading training dataset from file. This may not be desired in RL since the dataset is fixed and the agent will not be able to explore new states
Loading training dataset from file. This may not be desired in RL since the dataset is fixed and the agent will not be able to explore new states
Loading training dataset from file. This may not be desired in RL since the dataset is fixed and the agent will not be able to explore new states
Loading training dataset from file. This may not be desired in RL since the dataset is fixed and the agent will not be able to explore new states
Loading training dataset from file. This may not be desired in RL since the dataset is fixed and the agent will not be able to explore new states
Loading training dataset from file. This may not be desired in RL since the dataset is fixed and the agent will not be able to explore new states
Loading training dataset from file. This may not be desired in RL since the dataset is fixed and the agent will not be able to explore new states
Loading training dataset from file. This may not be desired in RL since the dataset is fixed and the agent will not be able to explore new states
Loading training dataset from file. This may not be desired in RL since the dataset is fixed and the agent will not be able to explore new states
Loading training dataset from file. This may not be desired in RL since the dataset is fixed and the agent will not be able to explore new states
Loading training dataset from file. This may not be desired in RL since the dataset is fixed and the agent will not be able to explore new states
Loading training dataset from file. This may not be desired in RL since the dataset is fixed and the agent will not be able to explore new states
Loading training dataset from file. This may not be desired in RL since the dataset is fixed and the agent will not be able to explore new states
Loading training dataset from file. This may not be desired in RL since the dataset is fixed and the agent will not be able to explore new states
Loading training dataset from file. This may not be desired in RL since the dataset is fixed and the agent will not be able to explore new states
Loading training dataset from file. This may not be desired in RL since the dataset is fixed and the agent will not be able to explore new states
Loading training dataset from file. This may not be desired in RL since the dataset is fixed and the agent will not be able to explore new states
Loading training dataset from file. This may not be desired in RL since the dataset is fixed and the agent will not be able to explore new states
Loading training dataset from file. This may not be desired in RL since the dataset is fixed and the agent will not be able to explore new states
Loading training dataset from file. This may not be desired in RL since the dataset is fixed and the agent will not be able to explore new states
Loading training dataset from file. This may not be desired in RL since the dataset is fixed and the agent will not be able to explore new states
Loading training dataset from file. This may not be desired in RL since the dataset is fixed and the agent will not be able to explore new states
Loading training dataset from file. This may not be desired in RL since the dataset is fixed and the agent will not be able to explore new states
Loading training dataset from file. This may not be desired in RL since the dataset is fixed and the agent will not be able to explore new states
Loading training dataset from file. This may not be desired in RL since the dataset is fixed and the agent will not be able to explore new states
Loading training dataset from file. This may not be desired in RL since the dataset is fixed and the agent will not be able to explore new states
Loading training dataset from file. This may not be desired in RL since the dataset is fixed and the agent will not be able to explore new states
Loading training dataset from file. This may not be desired in RL since the dataset is fixed and the agent will not be able to explore new states
Loading training dataset from file. This may not be desired in RL since the dataset is fixed and the agent will not be able to explore new states
Loading training dataset from file. This may not be desired in RL since the dataset is fixed and the agent will not be able to explore new states
Loading training dataset from file. This may not be desired in RL since the dataset is fixed and the agent will not be able to explore new states
Loading training dataset from file. This may not be desired in RL since the dataset is fixed and the agent will not be able to explore new states
Loading training dataset from file. This may not be desired in RL since the dataset is fixed and the agent will not be able to explore new states
Loading training dataset from file. This may not be desired in RL since the dataset is fixed and the agent will not be able to explore new states
Loading training dataset from file. This may not be desired in RL since the dataset is fixed and the agent will not be able to explore new states
Loading training dataset from file. This may not be desired in RL since the dataset is fixed and the agent will not be able to explore new states
Loading training dataset from file. This may not be desired in RL since the dataset is fixed and the agent will not be able to explore new states
Loading training dataset from file. This may not be desired in RL since the dataset is fixed and the agent will not be able to explore new states
Loading training dataset from file. This may not be desired in RL since the dataset is fixed and the agent will not be able to explore new states
Loading training dataset from file. This may not be desired in RL since the dataset is fixed and the agent will not be able to explore new states
Loading training dataset from file. This may not be desired in RL since the dataset is fixed and the agent will not be able to explore new states
Loading training dataset from file. This may not be desired in RL since the dataset is fixed and the agent will not be able to explore new states
Loading training dataset from file. This may not be desired in RL since the dataset is fixed and the agent will not be able to explore new states
Loading training dataset from file. This may not be desired in RL since the dataset is fixed and the agent will not be able to explore new states
Loading training dataset from file. This may not be desired in RL since the dataset is fixed and the agent will not be able to explore new states
Loading training dataset from file. This may not be desired in RL since the dataset is fixed and the agent will not be able to explore new states
Loading training dataset from file. This may not be desired in RL since the dataset is fixed and the agent will not be able to explore new states
Loading training dataset from file. This may not be desired in RL since the dataset is fixed and the agent will not be able to explore new states
Loading training dataset from file. This may not be desired in RL since the dataset is fixed and the agent will not be able to explore new states
Loading training dataset from file. This may not be desired in RL since the dataset is fixed and the agent will not be able to explore new states
Loading training dataset from file. This may not be desired in RL since the dataset is fixed and the agent will not be able to explore new states
`Trainer.fit` stopped: `max_epochs=100` reached.
Loading training dataset from file. This may not be desired in RL since the dataset is fixed and the agent will not be able to explore new states
Loading training dataset from file. This may not be desired in RL since the dataset is fixed and the agent will not be able to explore new states
LOCAL_RANK: 0 - CUDA_VISIBLE_DEVICES: [0]
/home/usmana/miniconda3/envs/rl4co-env/lib/python3.10/site-packages/lightning/pytorch/trainer/connectors/data_connector.py:432: PossibleUserWarning: The dataloader, test_dataloader, does not have many workers which may be a bottleneck. Consider increasing the value of the `num_workers` argument` (try 80 which is the number of cpus on this machine) in the `DataLoader` init to improve performance.
  rank_zero_warn(
wandb: Waiting for W&B process to finish... (success).
wandb: 
wandb: Run history:
wandb:               epoch ▁▁▁▂▂▂▂▂▂▃▃▃▃▃▃▄▄▄▄▄▅▅▅▅▅▆▆▆▆▆▆▇▇▇▇▇▇███
wandb:         test/reward ▁
wandb:          train/loss ▃██▇▆▇█▆▄▄▄▅▄▅▄▄▅▆▄▅▄▅▅▆▅▆▃▅▅▅▇▄▅▅▄▃▄▃▃▁
wandb:        train/reward ▁▁▂▃▃▄▄▅▆▆▆▇▇▇▇▇▇▇▇▇▇▇▇▇▇▇▇▇▇▇██████████
wandb: trainer/global_step ▁▁▁▂▂▂▂▂▂▃▃▃▃▃▃▄▄▄▄▄▅▅▅▅▅▅▆▆▆▆▆▇▇▇▇▇▇███
wandb:          val/reward ▁▁▂▄▆▇▇▇▇▇▇██▇▇██▇██████████████████████
wandb: 
wandb: Run summary:
wandb:               epoch 100
wandb:         test/reward -7.80941
wandb:          train/loss -13.26699
wandb:        train/reward -8.02061
wandb: trainer/global_step 19600
wandb:          val/reward -7.80799
wandb: 
wandb: You can sync this run to the cloud by running:
wandb: wandb sync /home/usmana/rl4co60/wandb/offline-run-20231130_194548-j8f4ript
wandb: Find logs at: ./wandb/offline-run-20231130_194548-j8f4ript/logs
